<?xml version="1.0" encoding="utf-8"?>
<!-- Generator: Adobe Illustrator 21.1.0, SVG Export Plug-In . SVG Version: 6.00 Build 0)  -->
<svg version="1.1" id="Layer_1" xmlns="http://www.w3.org/2000/svg" xmlns:xlink="http://www.w3.org/1999/xlink" x="0px" y="0px"
	 viewBox="0 0 402 252" style="enable-background:new 0 0 402 252;" xml:space="preserve">
<style type="text/css">
	.st0{fill:#BCBEC0;}
	.st1{fill:#9D9FA2;}
	.st2{fill:#E6E7E8;}
	.st3{fill:#231F20;}
	.st4{fill:none;stroke:#F51414;stroke-miterlimit:10;}
</style>
<title>cvvs</title>
<g>
	<rect x="-6.6" y="192.9" class="st0" width="357.1" height="4.8"/>
	<rect x="-6.6" y="204.8" class="st0" width="50" height="4.8"/>
	<rect x="-28" y="69.1" class="st1" width="400" height="40.5"/>
	<rect x="-6.6" y="131" class="st2" width="357.1" height="26.2"/>
	<path class="st3" d="M256.9,147.8c0,0.7,0.1,1.4,0.4,2c0.3,0.6,1,1,1.7,1c0.7,0,1.3-0.3,1.8-0.9c0.9-1.1,1.5-2.3,1.7-3.7
		c0.3-1.3,0.5-2.6,0.6-3.9c0.1-0.8-0.1-1.5-0.6-2.1c-0.4-0.4-0.9-0.7-1.5-0.7c-0.4,0-0.9,0.1-1.3,0.3c-0.5,0.3-0.8,0.7-1.1,1.2
		c-0.6,1.1-1.1,2.3-1.3,3.5C257.1,145.6,256.9,146.7,256.9,147.8z M255.3,147.4c0-2.2,0.6-4.4,1.7-6.4c0.3-0.6,0.8-1.2,1.3-1.7
		c0.4-0.4,0.8-0.7,1.3-0.9c0.5-0.2,1-0.3,1.5-0.3c1,0,2,0.4,2.6,1.2c0.8,0.9,1.1,2.1,1,3.4c0,1.5-0.2,3-0.7,4.5
		c-0.4,1.5-1.2,2.9-2.4,3.9c-0.7,0.6-1.7,1-2.7,1c-1,0-2-0.4-2.6-1.2C255.5,149.9,255.2,148.6,255.3,147.4z M244.2,147.8
		c0,0.7,0.1,1.4,0.4,2c0.3,0.6,1,1,1.7,1c0.7,0,1.3-0.3,1.8-0.9c0.9-1.1,1.5-2.3,1.7-3.7c0.3-1.3,0.5-2.6,0.6-3.9
		c0.1-0.8-0.1-1.5-0.6-2.1c-0.4-0.4-0.9-0.7-1.5-0.7c-0.4,0-0.9,0.1-1.3,0.3c-0.5,0.3-0.8,0.7-1.1,1.2c-0.6,1.1-1.1,2.3-1.3,3.5
		C244.4,145.6,244.2,146.7,244.2,147.8z M242.6,147.4c0-2.2,0.6-4.4,1.7-6.4c0.3-0.6,0.8-1.2,1.3-1.7c0.4-0.4,0.8-0.7,1.3-0.9
		c0.5-0.2,1-0.3,1.5-0.3c1,0,2,0.4,2.6,1.2c0.8,0.9,1.1,2.1,1,3.4c0,1.5-0.2,3-0.7,4.5c-0.4,1.5-1.2,2.9-2.4,3.9
		c-0.7,0.6-1.7,1-2.7,1c-1,0-2-0.4-2.6-1.2C242.9,149.9,242.5,148.6,242.6,147.4z M231.5,147.8c0,0.7,0.1,1.4,0.4,2
		c0.3,0.6,1,1,1.7,1c0.7,0,1.3-0.3,1.8-0.9c0.9-1.1,1.5-2.3,1.7-3.7c0.3-1.3,0.5-2.6,0.6-3.9c0.1-0.8-0.1-1.5-0.6-2.1
		c-0.4-0.4-0.9-0.7-1.5-0.7c-0.4,0-0.9,0.1-1.3,0.3c-0.5,0.3-0.8,0.7-1.1,1.2c-0.6,1.1-1.1,2.3-1.3,3.5
		C231.7,145.6,231.6,146.7,231.5,147.8z M229.9,147.4c0-2.2,0.6-4.4,1.7-6.4c0.3-0.6,0.8-1.2,1.3-1.7c0.4-0.4,0.8-0.7,1.3-0.9
		c0.5-0.2,1-0.3,1.5-0.3c1,0,2,0.4,2.6,1.2c0.8,0.9,1.1,2.1,1,3.4c0,1.5-0.2,3-0.7,4.5c-0.4,1.5-1.2,2.9-2.4,3.9
		c-0.7,0.6-1.7,1-2.7,1c-1,0-2-0.4-2.6-1.2C230.2,149.9,229.8,148.6,229.9,147.4z M218.9,147.8c0,0.7,0.1,1.4,0.4,2
		c0.3,0.6,1,1,1.7,1c0.7,0,1.3-0.3,1.8-0.9c0.9-1.1,1.5-2.3,1.7-3.7c0.3-1.3,0.5-2.6,0.6-3.9c0.1-0.8-0.1-1.5-0.6-2.1
		c-0.4-0.4-0.9-0.7-1.5-0.7c-0.4,0-0.9,0.1-1.3,0.3c-0.5,0.3-0.8,0.7-1.1,1.2c-0.6,1.1-1.1,2.3-1.3,3.5
		C219.1,145.6,218.9,146.7,218.9,147.8z M217.2,147.4c0-2.2,0.6-4.4,1.7-6.4c0.3-0.6,0.8-1.2,1.3-1.7c0.4-0.4,0.8-0.7,1.3-0.9
		c0.5-0.2,1-0.3,1.5-0.3c1,0,2,0.4,2.6,1.2c0.8,0.9,1.1,2.1,1,3.4c0,1.5-0.2,3-0.7,4.5c-0.4,1.5-1.2,2.9-2.4,3.9
		c-0.7,0.6-1.7,1-2.7,1c-1,0-2-0.4-2.6-1.2C217.5,149.9,217.2,148.6,217.2,147.4z"/>
	<g>
		<path class="st4" d="M296.4,126.2h51.1c1.7,0,3,1.3,3,3V159c0,1.7-1.3,3-3,3h-51.1c-1.7,0-3-1.3-3-3v-29.7
			C293.4,127.6,294.8,126.2,296.4,126.2z"/>
		<path class="st3" d="M305.6,151.8l2.2-10.3c-1.2,0.8-2.5,1.4-3.9,1.8l0.3-1.5c0.9-0.4,1.7-0.8,2.5-1.3c0.7-0.4,1.3-0.9,1.8-1.4
			c0.3-0.3,0.5-0.6,0.7-0.9h1l-2.9,13.7H305.6z"/>
		<path class="st3" d="M314.8,151.8c0.1-0.7,0.4-1.4,0.7-2c0.3-0.6,0.7-1.1,1.2-1.6c0.5-0.5,1.5-1.3,2.9-2.5c0.6-0.5,1.2-1,1.8-1.6
			c0.4-0.4,0.8-0.9,1-1.4c0.1-0.3,0.2-0.7,0.2-1c0-0.6-0.2-1.2-0.7-1.6c-0.4-0.4-1-0.7-1.6-0.7c-0.6,0-1.2,0.2-1.7,0.7
			c-0.6,0.6-0.9,1.3-1,2.1l-1.6-0.2c0.1-1.1,0.6-2.1,1.4-2.9c0.8-0.7,1.8-1.1,2.9-1c0.7,0,1.5,0.2,2.1,0.5c0.6,0.3,1.1,0.8,1.4,1.4
			c0.3,0.6,0.5,1.2,0.5,1.8c0,1-0.4,1.9-1,2.6c-1.1,1.1-2.2,2.2-3.5,3.1c-0.7,0.5-1.3,1-1.9,1.6c-0.4,0.4-0.7,0.8-0.9,1.2h6.1
			l-0.3,1.5H314.8z"/>
		<path class="st3" d="M327.4,148.3l1.6-0.2c0,0.8,0.3,1.5,0.8,2.1c0.5,0.4,1.1,0.6,1.7,0.6c0.8,0,1.6-0.3,2.2-0.9
			c0.6-0.5,0.9-1.3,0.9-2c0-0.6-0.2-1.2-0.7-1.7c-0.5-0.5-1.2-0.7-1.8-0.7c-0.1,0-0.3,0-0.5,0l0.3-1.4c0.2,0,0.3,0,0.5,0
			c0.8,0.1,1.6-0.2,2.2-0.7c0.5-0.4,0.8-1.1,0.8-1.7c0-0.6-0.2-1.2-0.6-1.6c-0.4-0.4-1-0.7-1.6-0.6c-0.6,0-1.2,0.2-1.6,0.7
			c-0.5,0.5-0.8,1.1-0.9,1.9l-1.7-0.3c0.2-1,0.8-1.9,1.6-2.6c0.8-0.6,1.8-0.9,2.8-0.9c1,0,2,0.3,2.7,1c0.7,0.6,1.1,1.6,1,2.5
			c0,0.7-0.2,1.3-0.6,1.9c-0.4,0.6-1,1-1.7,1.3c0.5,0.3,0.9,0.7,1.2,1.1c0.3,0.5,0.4,1,0.4,1.5c0,1.2-0.5,2.4-1.4,3.2
			c-0.9,0.9-2,1.4-3.3,1.3c-1.1,0.1-2.2-0.3-3-1C327.9,150.3,327.5,149.3,327.4,148.3z"/>
	</g>
</g>
</svg>
