<svg fill="#e20074" height="24" viewBox="0 0 24 24" width="24" xmlns="http://www.w3.org/2000/svg"> 
    <path d="M9.41 6L8 7.41l4.58 4.589L8 16.589 9.41 18l5.999-6.001z"/>
    
    <path d="M0-.25h24v24H0z" fill="none"/>
</svg>