<?xml version="1.0" encoding="utf-8"?>
<!-- Generator: Adobe Illustrator 22.1.0, SVG Export Plug-In . SVG Version: 6.00 Build 0)  -->
<svg version="1.1" id="Layer_1" xmlns="http://www.w3.org/2000/svg" xmlns:xlink="http://www.w3.org/1999/xlink" x="0px" y="0px"
	 viewBox="0 0 122 20" style="enable-background:new 0 0 122 18;" xml:space="preserve">
<style type="text/css">
	.st0{enable-background:new    ;}
	.st1{fill:#E50073;}
</style>
<title>T-Mobile One</title>
<desc>Created with Sketch.</desc>
<g id="Temp">
	<g id="E50073z" transform="translate(-47.000000, -54.000000)">
		<g class="st0">
			<path d="M51.3,73V59.9h-3.9V57h11.2v2.9h-3.9V73H51.3z"/>
			<path d="M63.6,65.6v2.9h-5.3v-2.9H63.6z"/>
			<path d="M64.9,73V57h4.7l2.8,11l2.8-11h4.6v16h-3.3V61.9L73.7,73h-2.8l-2.8-11v11H64.9z"/>
			<path d="M86.9,61.6c1.5,0,2.7,0.5,3.7,1.6c1,1.1,1.5,2.5,1.5,4.3c0,1.9-0.5,3.3-1.6,4.4c-1,1-2.2,1.5-3.7,1.5
				c-1.6,0-2.9-0.5-3.9-1.6c-1-1.1-1.4-2.5-1.4-4.2c0-1.7,0.5-3.1,1.4-4.2C83.9,62.2,85.2,61.6,86.9,61.6z M86.8,63.9
				c-0.6,0-1.1,0.3-1.4,1c-0.3,0.6-0.5,1.5-0.5,2.5c0,1.1,0.2,2,0.5,2.6c0.4,0.6,0.8,1,1.5,1c0.6,0,1.1-0.3,1.4-0.9
				c0.4-0.7,0.6-1.5,0.6-2.7c0-1.1-0.2-1.9-0.5-2.5C87.9,64.3,87.4,63.9,86.8,63.9z"/>
			<path d="M93.7,73V57H97v5.9c0.8-0.8,1.7-1.3,2.8-1.3c0.6,0,1.2,0.1,1.8,0.4s1,0.7,1.4,1.1c0.8,1,1.2,2.4,1.2,4.2
				c0,1.6-0.4,3-1.1,4.1c-0.8,1.3-2,1.9-3.4,1.9c-1.2,0-2.1-0.4-2.8-1.3V73H93.7z M98.8,64.1c-0.6,0-1.1,0.3-1.5,0.9
				c-0.4,0.6-0.5,1.4-0.5,2.4c0,0.9,0.1,1.6,0.4,2.2c0.4,0.8,0.9,1.1,1.6,1.1c0.7,0,1.2-0.4,1.5-1.1c0.3-0.6,0.4-1.4,0.4-2.2
				c0-1-0.2-1.9-0.6-2.5C99.9,64.4,99.5,64.1,98.8,64.1z"/>
			<path d="M105.8,60.2V57h3.3v3.2H105.8z M105.8,73V62h3.3v11H105.8z"/>
			<path d="M111.3,73V57h3.3v16H111.3z"/>
			<path d="M126.4,68.3h-6.9c0.1,1.9,0.7,2.9,1.9,2.9c0.8,0,1.4-0.5,1.7-1.6h3.1c-0.1,0.6-0.4,1.3-0.8,1.8c-0.9,1.3-2.2,1.9-3.9,1.9
				c-1.6,0-2.8-0.5-3.8-1.5c-1-1.1-1.5-2.5-1.5-4.3c0-1.7,0.5-3,1.4-4.1c1-1.2,2.2-1.8,3.8-1.8c1.2,0,2.3,0.4,3.2,1.2
				c0.9,0.8,1.5,2.1,1.7,3.6C126.3,66.9,126.4,67.6,126.4,68.3z M123.1,66.3c0-0.5-0.1-0.9-0.3-1.3c-0.1-0.4-0.4-0.7-0.6-0.9
				s-0.6-0.3-0.9-0.3c-0.7,0-1.2,0.4-1.5,1.1c-0.2,0.4-0.3,0.8-0.3,1.4H123.1z"/>
		</g>
		<g class="st0">
			<path class="st1" d="M138.8,56.6c1.8,0,3.4,0.7,4.6,2.1c1.4,1.6,2.1,3.7,2.1,6.3c0,2.3-0.5,4.2-1.6,5.7c-0.6,0.9-1.4,1.5-2.2,2
				s-1.9,0.7-3,0.7c-2.3,0-4-0.9-5.3-2.8c-1-1.5-1.5-3.4-1.5-5.6c0-2.6,0.7-4.7,2-6.2C135.1,57.4,136.7,56.6,138.8,56.6z
				 M138.6,59.6c-1,0-1.8,0.5-2.4,1.5c-0.6,1.1-0.9,2.4-0.9,3.9c0,1.6,0.3,2.9,0.9,4c0.3,0.5,0.7,0.9,1.2,1.2
				c0.4,0.2,0.8,0.3,1.3,0.3c0.5,0,0.9-0.1,1.3-0.4s0.8-0.6,1-1c0.7-1.1,1-2.5,1-4.1c0-1.6-0.3-2.9-0.9-3.9
				C140.5,60.1,139.7,59.6,138.6,59.6z"/>
			<path class="st1" d="M147.2,73V62h3.2v1c0.7-0.9,1.7-1.4,2.9-1.4c1.4,0,2.4,0.5,3,1.5c0.4,0.6,0.6,1.6,0.6,2.9v7h-3.3v-6.5
				c0-0.8-0.1-1.3-0.2-1.6c-0.2-0.5-0.6-0.7-1.1-0.7c-0.7,0-1.2,0.4-1.5,1.2c-0.2,0.4-0.2,1.2-0.2,2.3V73H147.2z"/>
			<path class="st1" d="M168.6,68.3h-6.9c0.1,1.9,0.7,2.9,1.9,2.9c0.8,0,1.4-0.5,1.7-1.6h3.1c-0.1,0.6-0.4,1.3-0.8,1.8
				c-0.9,1.3-2.2,1.9-3.9,1.9c-1.6,0-2.8-0.5-3.8-1.5c-1-1.1-1.5-2.5-1.5-4.3c0-1.7,0.5-3,1.4-4.1c1-1.2,2.2-1.8,3.8-1.8
				c1.2,0,2.3,0.4,3.2,1.2c0.9,0.8,1.5,2.1,1.7,3.6C168.5,66.9,168.6,67.6,168.6,68.3z M165.3,66.3c0-0.5-0.1-0.9-0.3-1.3
				c-0.1-0.4-0.4-0.7-0.6-0.9s-0.6-0.3-0.9-0.3c-0.7,0-1.2,0.4-1.5,1.1c-0.2,0.4-0.3,0.8-0.3,1.4H165.3z"/>
		</g>
	</g>
</g>
</svg>
