{
  "data": [
    {
      "section": [
      {
        "accountsection": "",
        "data": [
          {
            "accountsection":"",
            "name": "",
            "phone_number": "",
            "price": "",
            "PaymentDetails": [
              {
              "title": "Plan",
              "data": [
                {"description": "T-Mobile ONE", "price": "130.00"},
                {"description": "Autopay Discount", "price": "-10.00"}
              ]
            },
            {
              "title": "Add-ons",
              "data": [
                {"description": "Fam + Netflix On Us", "price": "13.00"},
                {"description": "Fam + Netflix On Us Discount", "price": "-13.00"}
              ]
            },
            {
              "title": "Plan change—items will be removed",
              "data": [
                {"description": "Simple Choice North America"},
                {"subtitle": "Stateside International Talk", "showBorder": true},
                {"warning_description": "This feature is no longer available. International calls will be charged at full price unless you add a new feature. ", "showBorder": true},
                {"description": "Family Allowance"}
              ]
            }]
          }
        ]
      },
      {
        "accountsection": "Lines affected by plan change",
        "data": [
          {
            "name": "Kirby",
            "ischangeplan":"Yes",
            "ischangeplantitle":"Lines affected by plan change ",
            "phone_number": "(444) 444-4444",
            "price": "28.00",
            "PaymentDetails": [
              {
              "title": "Plan",
              "data": [
                {"description": "T-Mobile ONE", "price": "", "text": "Included"}
              ]
            },
            {
              "title": "Add-ons",
              "data": [
                {"description": "Unlimited data on T-Mobile Network", "text": "Included"},
                {"description": "Name ID", "price": "5.00"},
                {"description": "Voicemail to text", "price": "4.00"},
                {"description": "on-Network Data 1 week - 1GB", "price": "10.00"}
              ]
            },
            {
              "title": "Equipment",
              "data": [
                {"description": "Iphone 7+ Installment plan", "price": "30.00"},
                {"description": "$300 off iphone offer", "price": "-7.00"}
              ]
            },
            {
              "title": "Plan change—items will be removed",
              "data": [
                {"description": "SC 6GB Data & SHMS"},
                {"description": "North America Features"}
              ]  
            }
          ]
          },
          {
            "name": "Matt",
            "ischangeplan":"Yes",
            "ischangeplantitle":"Lines affected by plan change ",
            "phone_number": "(555) 555-55555",
            "price": "5.00",
            "PaymentDetails": [
              {
              "title": "Plan",
              "data": [
                {"description": "T-Mobile ONE", "price": "", "text": "Included"}
              ]
            },
            {
              "title": "Add-ons",
              "data": [
                {"description": "Unlimited data on T-Mobile Network", "text": "Included"},
                {"description": "Caller Tunes", "price": "5.00"}
              ]
            },
            {
              "title": "Plan change—items will be removed",
              "data": [
                {"description": "SC 10GB Data & SHMS"},
                {"description": "North America Features"}
              ]        
            }
           ]
          },
          {
            "name": "Will",
            "ischangeplan":"Yes",
            "ischangeplantitle":"Lines affected by plan change ",
            "phone_number": "(666) 666-6666",
            "price": "20.00",
            "PaymentDetails": [
              {
              "title": "Plan",
             
              "data": [
                {"description": "T-Mobile ONE Additional line", "price": "25.00"},
                {"description": "Autopay Discount", "price": "-5.00"}
              ]
            },
            {
              "title": "Add-ons",
              "data": [
                {"description":"Unlimited data on T-Mobile Network", "text":"Included"}
              ]
            },
      
            {
              "title": "Plan change—items will be removed",
              "data": [
                {"description": "Simple Choice North America"},
                {"subtitle": "This one is on us promo", "showBorder": true},
                {"warning_description": "This promotion is not available with your new plan", "showBorder": true},
                {"description": "SC 6GB High Speed Data with SMHS"}
              ]
            }
           ]
          },
          {
            "name": "Will",
            "ischangeplan":"Yes",
            "ischangeplantitle":"Lines affected by plan change ",
            "phone_number": "(777) 777-7777",
            "price": "20.00",
            "PaymentDetails": [
              {
              "title": "Plan",
              "data": [
                {"subtitle": "T-Mobile ONE Tablet", "price": "75.00", "showBorder": true},
                {"warning_description": "Your existing Mobile Internet plan isn’t compatible with your new plan. But don’t worry, we chose the best match for you.", "showBorder": true},
                {"description": "Autopay Discount", "price": "-5.00"},
                {"description": "T-Mobile ONE Tablet + Voice bill credit", "price": "-50.00"}
              ]
            },
            {
              "title": "Plan change—items will be removed",
              "data": [
                {"description": "10GB high-speed w/ Data Stash & SMHS"},
                {"description": "SC Tablet + Voice Discount"}
              ]
            }
           ]
          }
        ]
      },
      {
        "accountsection": "Lines not affected by plan change",
        "data": [
          {
            "name": "MBB Line1",
            "ischangeplan":"No",
            "ischangeplantitle":"Lines not affected by plan change ",
            "phone_number": "(777) 777-7777",
            "price": "20.00",
            "PaymentDetails": [
              {
              "title": "Plan",
              "data": [
                {"subtitle": "T-Mobile ONE Tablet", "price": "75.00"},
                {"description": "Autopay Discount", "price": "-5.00"},
                {"description": "T-Mobile ONE Tablet + Voice bill credit", "price": "-50.00"}
              ]
            },
            {
              "title": "Add-ons",
              "data": [
                {"description":"Unlimited data on T-Mobile Network", "text":"Included"}
              ]
            }
           ]
          } 
          ,
          {
            "name": "MBB Line2",
            "ischangeplan":"No",
            "ischangeplantitle":"Lines not affected by plan change ",
            "phone_number": "(777) 777-7777",
            "price": "20.00",
            "PaymentDetails": [
              {
              "title": "Plan",
              "data": [
                {"subtitle": "T-Mobile ONE Tablet", "price": "75.00"},
                {"description": "Autopay Discount", "price": "-5.00"},
                {"description": "T-Mobile ONE Tablet + Voice bill credit", "price": "-50.00"}
              ]
            },
            {
              "title": "Add-ons",
              "data": [
                {"description":"Unlimited data on T-Mobile Network", "text":"Included"}
              ]
            },
            {
              "title": "Equipment",
              "data": [
                {"description":"Tablet installation plan", "text":"$00.00"},
                {"description":"$00 off tablet offer", "text":"-$0.00"}
              ]
            }
           ]
          }
        ]        
      }
     ]}],
     "taxDetails": {
      "title": "Estimated Taxes & Fees",
      "price": "11.00"
    },
  "monthlyDetails": {
    "title": "New Monthly Total",
    "price": "193.00"
  }
}

