{
    "title": [{
        "id": "1",
        "title": "Choose your video perks ",
        "desc": "Choose Hulu or Netflix. Changed your mind? You can switch once per bill cycle (28 days). "
    }],
    "details": [{
            "name": "Netflix",
            "description": "A streaming service that allows you to watch a wide variety of award-winning TV shows, movies, documentaries, and more.",
            "subtitle":"Manage Netflix",
            "fullImage": "http://fpoimg.com/73x73",
            "isTidalComplete": "Yes",
            "tidalType": "Premium",
            "message":"YOU HAVE NETFLIX STANDARD"
        },
       
        {
            "name": "Hulu",
            "description": "A streaming service that allows you to watch a wide variety of award-winning TV shows, movies, documentaries, and more.",
            "subtitle": "Add Hulu",
            "fullImage": "http://fpoimg.com/73x73",
            "isTidalComplete": "Yes",
            "tidalType": ""
        }
     
    ]
}